# ----- Calculation mode and parallelization ------------------------------------------------------

 CalculationMode   = td
 RestartWrite = no
 ExperimentalFeatures = yes
 FromScratch = yes

%Systems
  'Maxwell' | maxwell
%

 Maxwell.ParDomains = auto
 Maxwell.ParStates  = no

# ----- Maxwell box variables ---------------------------------------------------------------------

 # free maxwell box limit of 10.0 plus 2.0 for the incident wave boundaries with
 # der_order = 4 times dx_mx

 lsize_mx = 12.0
 dx_mx    = 0.5

 Maxwell.BoxShape   = parallelepiped

 %Maxwell.Lsize
  lsize_mx | lsize_mx | lsize_mx
 %

 %Maxwell.Spacing
  dx_mx | dx_mx | dx_mx
 %


# ----- Maxwell calculation variables -------------------------------------------------------------

 MaxwellHamiltonianOperator = faraday_ampere

 %MaxwellBoundaryConditions
  plane_waves | plane_waves | plane_waves
 %

 %MaxwellAbsorbingBoundaries
  not_absorbing | not_absorbing | not_absorbing
 %


# ----- Output variables --------------------------------------------------------------------------

 OutputFormat = axis_x + axis_y + axis_z


# ----- Maxwell output variables ------------------------------------------------------------------

 %MaxwellOutput
  electric_field
  magnetic_field
  maxwell_energy_density
 %

 MaxwellOutputInterval = 10
 MaxwellTDOutput       = maxwell_energy

 %MaxwellFieldsCoordinate
   0.00 | 0.00 | 0.00
 %


# ----- Time step variables -----------------------------------------------------------------------

 TDSystemPropagator = prop_expmid
 TDTimeStep                        = 0.002
 TDPropagationTime                 = 0.1


# ----- Maxwell field variables -------------------------------------------------------------------

 lambda = 4.0
 omega  = 2 * pi * c / lambda
 kx     = omega / c
 Ez     = 0.05
 pw     = 10.0
 p_s     = - 5 * 5.0

 %MaxwellIncidentWaves
   plane_wave_mx_function | electric_field | 0 | Ez | Ez*i | "plane_waves_function"
 %

 %MaxwellFunctions
   "plane_waves_function" | mxf_cosinoidal_wave | kx | 0 | 0 | p_s | 0 | 0 | pw
 %
