# ----- Calculation mode and parallelization ----------------------------------

CalculationMode   = td
RestartWrite = no
ExperimentalFeatures = yes
FromScratch = yes

Dimensions = 3

%Systems
  'ChargedParticle' | charged_particle
%

# ----- Charged particle ------------------------------------------------------

ChargedParticle.ParticleMass = 1
ChargedParticle.ParticleCharge = 1

%ChargedParticle.ParticleInitialPosition
 1 | 0.0001 | 0.0001
%
%ChargedParticle.ParticleInitialVelocity
 0 | 0 | 0
%

ChargedParticle.TDSystemPropagator = exp_mid


# ----- External potential ---------------------------------------------------

omega = 0.5
electric_amplitude = 1.0

%TDExternalFields
electric_field   | 0 | 0 | 1 | omega | "envelope_function"
%

%TDFunctions
"envelope_function" | tdf_cosinoidal | electric_amplitude | 2*pi/omega*5 |  2*pi/omega*5 
%

# ----- Time step variables ---------------------------------------------------

TDTimeStep = 0.05
TDPropagationTime = 200
