CalculationMode = gs
FromScratch = yes

%Coordinates
 'Pt' | 0.0 | 0.0 | 0.0
%

%Species
 'Pt' | species_pseudo | file | '16-platinum_psp8.78_Pt_r.oncvpsp.psp8'
%

Radius = 5.0
Spacing = 0.5

Eigensolver = chebyshev_filter
ExtraStates = 7

Smearing = 0.1*eV
SmearingFunction = fermi_dirac

PoissonSolver = isf
