ExperimentalFeatures = yes

CalculationMode = gs

Dimensions = 1
DerivativesOrder = 1

BoxShape = parallelepiped
lsize = 6
spacing = 0.1

%Species
 "Al3P" | species_user_defined | potential_formula  |  "-13/sqrt(x^2+1)" | valence | 10
%

%Coordinates
"Al3P" | 0
%

%RestartOptions
  restart_gs | "restart" | restart_states+restart_rho+restart_vhxc
%

SpinComponents = spin_polarized

XCFunctional = oep_x
OEPLevel = oep_full

OEPMixingScheme = oep_mixing_scheme_dens
ParKPoints = no

EigenSolverTolerance = 1e-10
EigensolverMaxIter = 100
CGEnergyChangeThreshold = 1e-4

ConvAbsDens = 5e-7

MaximumIter = 300

LRMaximumIter = 15
LRTolFinalTol = 1e-08


RestartWrite = no
