CalculationMode = em_resp
ExperimentalFeatures = yes
FromScratch = yes
RestartFixedOccupations = no

%Coordinates
 'O'  |  0.000000  | -0.553586  |  0.000000
 'H'  |  1.429937  |  0.553586  |  0.000000
 'H'  | -1.429937  |  0.553586  |  0.000000
%

Spacing = 0.5
ConvRelDens = 1.0e-4
BoxShape = parallelepiped
%LatticeParameters
 20 | 20 | 20
%
PeriodicDimensions = 3


EMCalcBornCharges = yes

%KPointsGrid
1 | 1 | 1
%

%EMFreqs
2 | 0.0 | 0.1
%

EMEta = 0.01

FilterPotentials = filter_none

MixField = density
