CalculationMode = gs
FromScratch = yes

%Coordinates
 'O'  |  0.000000  | -0.553586  |  0.000000
 'H'  |  1.429937  |  0.553586  |  0.000000
 'H'  | -1.429937  |  0.553586  |  0.000000
%

Spacing = 0.5
ConvRelDens = 8.0e-8
BoxShape = parallelepiped
%LatticeParameters
 20 | 20 | 20
%
PeriodicDimensions = 3
SCFCalculateDipole = yes


%KPointsGrid
1 | 1 | 1
%

FilterPotentials = filter_none

MixField = density
